{
  "phpcycle" :
  {
    "route" : null,
    "route_parameters" : null,
    "route_attributes" : null,

    "project" : null,

    "controller" : null,
    "method" : null,

    "iniControllers" : [],
    "routeControllers" : []
  },

  "dependencies" : [],
  "route_extensions" : []
}