<svg id="Facebook" xmlns="http://www.w3.org/2000/svg" width="65" height="65" viewBox="0 0 65 65">
  <defs>
    <style>
      .cls-1 {
        fill: #3b5998;
      }

      .cls-2 {
        fill: #fff;
        fill-rule: evenodd;
      }
    </style>
  </defs>
  <rect class="cls-1" width="65" height="65"/>
  <g id="_14px_Padding" data-name="14px Padding">
    <path id="Icon" class="cls-2" d="M41,17.2v5.368H37.125v0.119h-0.75a7.417,7.417,0,0,1-.875.358,6.483,6.483,0,0,0-.75,1.074c-0.368,1.042-.125,3.671-0.125,5.01H40.75L40,34.971H34.625V50h-6.25V34.971H23V29.126h5.375c-0.016-2.013-.3-5.491.25-7.038A7.281,7.281,0,0,1,34,17.2h0.75C36.356,16.759,39.265,17.184,41,17.2Z"/>
  </g>
</svg>
